cnn-design/accelerator-design/codes/simulations/wave-khizar.vcd
$date
	Fri Mar  8 16:49:34 2024
$end
$version
	GTKWave Analyzer v3.4.0 (w)1999-2022 BSI
$end
$timescale
	1 s
$end
$scope module tb_ren_conv_top_wrapper $end
$scope module ren_conv_top_wrapper_inst $end
$var reg 32 Q wbs_dat_o[31:0] $end
$scope module ren_conv_top_inst_0 $end
$var wire 1 O wbs_ack_o $end
$var wire 32 P wbs_dat_o[31:0] $end
$var wire 32 L data_out_regs[31:0] $end
$var reg 32 M rdata[31:0] $end
$var reg 1 N ready $end
$scope module cfg_regs_inst $end
$var wire 1 @ kern_addr_mode $end
$var wire 2 : addr[1:0] $end
$var wire 1 ; clk $end
$var wire 32 = data_in[31:0] $end
$var wire 1 D reset $end
$var wire 1 J wr_en $end
$var wire 8 I stride[7:0] $end
$var wire 1 H start $end
$var wire 1 G soft_reset $end
$var wire 4 F shift[3:0] $end
$var wire 8 E result_cols[7:0] $end
$var wire 3 C mask[2:0] $end
$var wire 3 B kerns[2:0] $end
$var wire 3 A kern_cols[2:0] $end
$var wire 1 9 accum_ovrflow $end
$var wire 1 ? en_max_pool $end
$var wire 1 > done $end
$var wire 32 K data_out[31:0] $end
$var wire 8 < cols[7:0] $end
$upscope $end
$scope module results_dffram $end
$var wire 20 S dat_i[19:0] $end
$upscope $end
$upscope $end
$upscope $end
$var wire 32 5 wbs_dat_o[31:0] $end
$var wire 1 1 wbs_ack_o $end
$var reg 1 " clk $end
$var reg 8 # cols[7:0] $end
$var reg 1 $ en_max_pool $end
$var reg 1 ' kern_addr_mode $end
$var reg 3 ( kern_cols[2:0] $end
$var reg 3 ) kerns[2:0] $end
$var reg 3 * mask[2:0] $end
$var reg 1 + reset $end
$var reg 8 , result_cols[7:0] $end
$var reg 4 - shift[3:0] $end
$var reg 8 . stride[7:0] $end
$var reg 1 / wb_clk_i $end
$var reg 1 0 wb_rst_i $end
$var reg 32 2 wbs_adr_i[31:0] $end
$var reg 1 3 wbs_cyc_i $end
$var reg 32 4 wbs_dat_i[31:0] $end
$var reg 4 6 wbs_sel_i[3:0] $end
$var reg 1 7 wbs_stb_i $end
$var reg 1 8 wbs_we_i $end
$var integer 32 % i $end
$var integer 32 & iter $end
$scope module ren_conv_top_wrapper_inst $end
$var wire 1 R wbs_ack_o $end
$upscope $end
$upscope $end
$enddefinitions $end
#0
$dumpvars
x$
07
bx B
bx (
bx L
bx Q
xO
x'
b0 :
bx F
bx ,
bx *
bx E
bx )
0+
0;
bx C
x>
00
bx M
bx -
bx .
0/
b0 =
bx A
b0 6
03
x9
b0 2
b0 4
0D
x?
bx #
bx I
bx %
xN
08
bx P
bx K
0J
xR
bx &
bx <
xG
x@
bx S
bx 5
0"
xH
x1
$end
#5
1;
1/
1"
#10
0"
0;
0/
#15
1/
1"
1;
#16
1+
10
1D
#20
0/
0;
0"
#25
1"
1/
0O
b0 B
b0 Q
b0 L
b0 F
b0 E
01
0>
b0 C
b0 M
b0 A
09
1;
0R
b0 I
0?
0N
b0 P
b0 K
0H
0G
b0 <
b0 5
0@
b0 S
#30
0/
0"
0;
#35
1;
1/
1"
#36
00
0D
0+
#40
0;
0"
0/
#45
1/
1;
1"
#50
0"
0/
0;
#55
1;
1"
1/
#60
0/
0;
0"
#65
1"
1/
1;
#70
0;
0"
0/
#75
1/
1;
1"
#80
0"
0/
0;
#85
1;
1"
1/
#90
0/
0;
0"
#95
1"
1/
1;
#100
0;
0"
0/
#105
1/
1;
1"
#110
0"
0/
0;
#115
1;
1"
1/
#120
0/
0;
0"
#125
1"
1/
1;
#130
0;
0"
0/
#135
1/
1;
0$
b10 (
b11 )
0'
b11000 ,
b111 *
b1 .
b0 -
1"
b1000 #
b0 %
b0 &
#140
0/
0;
0"
#145
1"
1/
1;
#146
17
b111111110000000100000001 4
b110000000000000000000100000000 2
b111111110000000100000001 =
b1111 6
13
18
#150
0"
0;
0/
#155
1/
1"
1O
11
1;
1N
1R
#160
0/
0"
0;
#165
1;
1/
0O
0R
1"
0N
01
#166
bx 6
bx :
x8
bx =
bx 2
bx 4
x7
b1 %
03
#170
0;
0/
0"
#175
1"
1;
1/
#176
b110010000000000000000000 4
13
b110000000000000000000100000100 2
b110010000000000000000000 =
b1111 6
18
b1 :
17
#180
0"
0/
0;
#185
1;
1"
11
1O
1/
1R
1N
#190
0"
0;
0/
#195
1/
1"
0N
01
1;
0R
0O
#196
x8
x7
bx 6
bx =
bx 4
bx 2
03
b10 %
bx :
#200
0"
0/
0;
#205
1;
1"
1/
#206
b10 :
b110000000000000000000100001000 2
b1001000000011000010100 4
b1001000000011000010100 =
18
b1111 6
17
13
#210
0/
0;
0"
#215
1"
1/
1N
1O
1;
11
1R
#220
0"
0/
0;
#225
1;
1"
0N
0R
1/
01
0O
#226
03
bx 6
x8
bx =
bx :
bx 4
bx 2
b11 %
x7
#230
0;
0"
0/
#235
1/
1;
1"
#236
b10001100000000000100 4
17
b11 :
b10001100000000000100 =
13
18
b1111 6
b110000000000000000000100001100 2
#240
0/
0"
0;
#245
1;
1/
1O
1N
1"
1R
11
#250
0/
0;
0"
#255
1"
1/
01
0O
1;
0R
0N
#256
x8
bx 2
03
bx =
bx 4
bx :
x7
b100 %
bx 6
#260
0/
0"
0;
#265
1;
1/
1"
#266
b1111 6
b0 :
b1000000001100 4
b1000000001100 =
18
13
b110000000000000000000100010000 2
17
#270
0"
0;
0/
#275
1/
1"
11
1N
1;
1O
1R
#280
0/
0"
0;
#285
1;
1/
01
0R
1"
0O
0N
#286
x7
03
x8
bx =
bx 6
bx 4
bx :
b101 %
bx 2
#290
0;
0/
0"
#295
1"
1;
1/
#296
b10000011011000000000 4
b110000000000000000000100010100 2
b1111 6
b10000011011000000000 =
17
18
13
b1 :
#300
0"
0/
0;
#305
1;
1"
1N
11
1/
1R
1O
#310
0"
0;
0/
#315
1/
1"
0O
0N
1;
0R
01
#316
x8
bx :
x7
bx =
bx 4
bx 6
bx 2
b110 %
03
#320
0"
0/
0;
#325
1;
1"
1/
#326
13
b1111 6
b1000000000000 4
b1000000000000 =
18
17
b10 :
b110000000000000000000100011000 2
#330
0/
0;
0"
#335
1"
1/
1O
11
1;
1N
1R
#340
0"
0/
0;
#345
1;
1"
0O
0R
1/
0N
01
#346
bx 2
x7
x8
bx =
03
bx 4
bx 6
b111 %
bx :
#350
0;
0"
0/
#355
1/
1;
1"
#356
b111100 4
b11 :
13
b111100 =
b110000000000000000000100011100 2
18
17
b1111 6
#360
0/
0"
0;
#365
1;
1/
11
1O
1"
1R
1N
#370
0/
0;
0"
#375
1"
1/
0N
01
1;
0R
0O
#376
x8
bx 6
bx 2
bx =
bx 4
03
bx :
b1000 %
x7
#380
0/
0"
0;
#385
1;
1/
1"
#386
17
13
b10000100000 4
b10000100000 =
18
b110000000000000000000100100000 2
b1111 6
b0 :
#390
0"
0;
0/
#395
1/
1"
1N
1O
1;
11
1R
#400
0/
0"
0;
#405
1;
1/
0N
0R
1"
01
0O
#406
bx :
bx 2
x8
bx =
x7
bx 4
03
b1001 %
bx 6
#410
0;
0/
0"
#415
1"
1;
1/
#416
b10000000100000000 4
b1111 6
17
b10000000100000000 =
b1 :
18
b110000000000000000000100100100 2
13
#420
0"
0/
0;
#425
1;
1"
1O
1N
1/
1R
11
#430
0"
0;
0/
#435
1/
1"
01
0O
1;
0R
0N
#436
x8
03
bx :
bx =
bx 4
x7
bx 6
b1010 %
bx 2
#440
0"
0/
0;
#445
1;
1"
1/
#446
b110000000000000000000100101000 2
17
b10000000000000100000001 4
b10000000000000100000001 =
18
b10 :
13
b1111 6
#450
0/
0;
0"
#455
1"
1/
11
1N
1;
1O
1R
#460
0"
0/
0;
#465
1;
1"
01
0R
1/
0O
0N
#466
bx 6
bx :
x8
bx =
bx 2
bx 4
x7
b1011 %
03
#470
0;
0"
0/
#475
1/
1;
1"
#476
b1000000000000000000 4
13
b110000000000000000000100101100 2
b1000000000000000000 =
b1111 6
18
b11 :
17
#480
0/
0"
0;
#485
1;
1/
1N
11
1"
1R
1O
#490
0/
0;
0"
#495
1"
1/
0O
0N
1;
0R
01
#496
x8
x7
bx 6
bx =
bx 4
bx 2
03
b1100 %
bx :
#500
0/
0"
0;
#505
1;
1/
1"
#506
b0 :
b110000000000000000000100110000 2
b10000000000000000001000 4
b10000000000000000001000 =
18
b1111 6
17
13
#510
0"
0;
0/
#515
1/
1"
1O
11
1;
1N
1R
#520
0/
0"
0;
#525
1;
1/
0O
0R
1"
0N
01
#526
03
bx 6
x8
bx =
bx :
bx 4
bx 2
b1101 %
x7
#530
0;
0/
0"
#535
1"
1;
1/
#536
b100000000000000001000 4
17
b1 :
b100000000000000001000 =
13
18
b1111 6
b110000000000000000000100110100 2
#540
0"
0/
0;
#545
1;
1"
11
1O
1/
1R
1N
#550
0"
0;
0/
#555
1/
1"
0N
01
1;
0R
0O
#556
x8
bx 2
03
bx =
bx 4
bx :
x7
b1110 %
bx 6
#560
0"
0/
0;
#565
1;
1"
1/
#566
b1111 6
b10 :
b101000000000000000100 4
b101000000000000000100 =
18
13
b110000000000000000000100111000 2
17
#570
0/
0;
0"
#575
1"
1/
1N
1O
1;
11
1R
#580
0"
0/
0;
#585
1;
1"
0N
0R
1/
01
0O
#586
x7
03
x8
bx =
bx 6
bx 4
bx :
b1111 %
bx 2
#590
0;
0"
0/
#595
1/
1;
1"
#596
b10000000000000000000000 4
b110000000000000000000100111100 2
b1111 6
b10000000000000000000000 =
17
18
13
b11 :
#600
0/
0"
0;
#605
1;
1/
1O
1N
1"
1R
11
#610
0/
0;
0"
#615
1"
1/
01
0O
1;
0R
0N
#616
x8
bx :
x7
bx =
bx 4
bx 6
bx 2
b10000 %
03
#620
0/
0"
0;
#625
1;
1/
1"
#626
13
b1111 6
b0 4
b0 =
18
17
b0 :
b110000000000000000000101000000 2
#630
0"
0;
0/
#635
1/
1"
11
1N
1;
1O
1R
#640
0/
0"
0;
#645
1;
1/
01
0R
1"
0O
0N
#646
bx 2
x7
x8
bx =
03
bx 4
bx 6
b10001 %
bx :
#650
0;
0/
0"
#655
1"
1;
1/
#656
b111110 4
b1 :
13
b111110 =
b110000000000000000000101000100 2
18
17
b1111 6
#660
0"
0/
0;
#665
1;
1"
1N
11
1/
1R
1O
#670
0"
0;
0/
#675
1/
1"
0O
0N
1;
0R
01
#676
x8
bx 6
bx 2
bx =
bx 4
03
bx :
b10010 %
x7
#680
0"
0/
0;
#685
1;
1"
1/
#686
17
13
b10000000100000000 4
b10000000100000000 =
18
b110000000000000000000101001000 2
b1111 6
b10 :
#690
0/
0;
0"
#695
1"
1/
1O
11
1;
1N
1R
#700
0"
0/
0;
#705
1;
1"
0O
0R
1/
0N
01
#706
bx :
bx 2
x8
bx =
x7
bx 4
03
b10011 %
bx 6
#710
0;
0"
0/
#715
1/
1;
1"
#716
b10000000100000001 4
b1111 6
17
b10000000100000001 =
b11 :
18
b110000000000000000000101001100 2
13
#720
0/
0"
0;
#725
1;
1/
11
1O
1"
1R
1N
#730
0/
0;
0"
#735
1"
1/
0N
01
1;
0R
0O
#736
x8
03
bx :
bx =
bx 4
x7
bx 6
b10100 %
bx 2
#740
0/
0"
0;
#745
1;
1/
1"
#746
b110000000000000000000101010000 2
17
b100000011 4
b100000011 =
18
b0 :
13
b1111 6
#750
0"
0;
0/
#755
1/
1"
1N
1O
1;
11
1R
#760
0/
0"
0;
#765
1;
1/
0N
0R
1"
01
0O
#766
bx 6
bx :
x8
bx =
bx 2
bx 4
x7
b10101 %
03
#770
0;
0/
0"
#775
1"
1;
1/
#776
b0 4
13
b110000000000000000000101010100 2
b0 =
b1111 6
18
b1 :
17
#780
0"
0/
0;
#785
1;
1"
1O
1N
1/
1R
11
#790
0"
0;
0/
#795
1/
1"
01
0O
1;
0R
0N
#796
x8
x7
bx 6
bx =
bx 4
bx 2
03
b10110 %
bx :
#800
0"
0/
0;
#805
1;
1"
1/
#806
b10 :
b110000000000000000000101011000 2
b0 4
b0 =
18
b1111 6
17
13
#810
0/
0;
0"
#815
1"
1/
11
1N
1;
1O
1R
#820
0"
0/
0;
#825
1;
1"
01
0R
1/
0O
0N
#826
03
bx 6
x8
bx =
bx :
bx 4
bx 2
b10111 %
x7
#830
0;
0"
0/
#835
1/
1;
1"
#836
b0 4
17
b11 :
b0 =
13
18
b1111 6
b110000000000000000000101011100 2
#840
0/
0"
0;
#845
1;
1/
1N
11
1"
1R
1O
#850
0/
0;
0"
#855
1"
1/
0O
0N
1;
0R
01
#856
x8
bx 2
03
bx =
bx 4
bx :
x7
b11000 %
bx 6
#860
0/
0"
0;
#865
1;
1/
1"
#866
b1111 6
b0 :
b0 4
b0 =
18
13
b110000000000000000000101100000 2
17
#870
0"
0;
0/
#875
1/
1"
1O
11
1;
1N
1R
#880
0/
0"
0;
#885
1;
1/
0O
0R
1"
0N
01
#886
x7
03
x8
bx =
bx 6
bx 4
bx :
b11001 %
bx 2
#890
0;
0/
0"
#895
1"
1;
1/
#896
b0 4
b110000000000000000000101100100 2
b1111 6
b0 =
17
18
13
b1 :
#900
0"
0/
0;
#905
1;
1"
11
1O
1/
1R
1N
#910
0"
0;
0/
#915
1/
1"
0N
01
1;
0R
0O
#916
x8
bx :
x7
bx =
bx 4
bx 6
bx 2
b11010 %
03
#920
0"
0/
0;
#925
1;
1"
1/
#926
13
b1111 6
b11111111 4
b11111111 =
18
17
b10 :
b110000000000000000000101101000 2
#930
0/
0;
0"
#935
1"
1/
1N
1O
1;
11
1R
#940
0"
0/
0;
#945
1;
1"
0N
0R
1/
01
0O
#946
bx 2
x7
x8
bx =
03
bx 4
bx 6
b11011 %
bx :
#950
0;
0"
0/
#955
1/
1;
1"
#956
b10000111100000001 4
b11 :
13
b10000111100000001 =
b110000000000000000000101101100 2
18
17
b1111 6
#960
0/
0"
0;
#965
1;
1/
1O
1N
1"
1R
11
#970
0/
0;
0"
#975
1"
1/
01
0O
1;
0R
0N
#976
x8
bx 6
bx 2
bx =
bx 4
03
bx :
b11100 %
x7
#980
0/
0"
0;
#985
1;
1/
1"
#986
17
13
b10000000100000001 4
b10000000100000001 =
18
b110000000000000000000101110000 2
b1111 6
b0 :
#990
0"
0;
0/
#995
1/
1"
11
1N
1;
1O
1R
#1000
0/
0"
0;
#1005
1;
1/
01
0R
1"
0O
0N
#1006
bx :
bx 2
x8
bx =
x7
bx 4
03
b11101 %
bx 6
#1010
0;
0/
0"
#1015
1"
1;
1/
#1016
b1110000001100100000001 4
b1111 6
17
b1110000001100100000001 =
b1 :
18
b110000000000000000000101110100 2
13
#1020
0"
0/
0;
#1025
1;
1"
1N
11
1/
1R
1O
#1030
0"
0;
0/
#1035
1/
1"
0O
0N
1;
0R
01
#1036
x8
03
bx :
bx =
bx 4
x7
bx 6
b11110 %
bx 2
#1040
0"
0/
0;
#1045
1;
1"
1/
#1046
b110000000000000000000101111000 2
17
b1100000000110000000000 4
b1100000000110000000000 =
18
b10 :
13
b1111 6
#1050
0/
0;
0"
#1055
1"
1/
1O
11
1;
1N
1R
#1060
0"
0/
0;
#1065
1;
1"
0O
0R
1/
0N
01
#1066
bx 6
bx :
x8
bx =
bx 2
bx 4
x7
b11111 %
03
#1070
0;
0"
0/
#1075
1/
1;
1"
#1076
b1100000000000 4
13
b110000000000000000000101111100 2
b1100000000000 =
b1111 6
18
b11 :
17
#1080
0/
0"
0;
#1085
1;
1/
11
1O
1"
1R
1N
#1090
0/
0;
0"
#1095
1"
1/
0N
01
1;
0R
0O
#1096
x8
x7
bx 6
bx =
bx 4
bx 2
03
b0 %
bx :
#1100
0/
0"
0;
#1105
1;
1/
1"
#1106
b0 :
b110000000000000000001000000000 2
b10000000100000001 4
b10000000100000001 =
18
b1111 6
17
13
#1110
0"
0;
0/
#1115
1/
1"
1N
1O
1;
11
1R
#1120
0/
0"
0;
#1125
1;
1/
0N
0R
1"
01
0O
#1126
03
bx 6
x8
bx =
bx :
bx 4
bx 2
b1 %
x7
#1130
0;
0/
0"
#1135
1"
1;
1/
#1136
b10000000100000001 4
17
b1 :
b10000000100000001 =
13
18
b1111 6
b110000000000000000001000000100 2
#1140
0"
0/
0;
#1145
1;
1"
1O
1N
1/
1R
11
#1150
0"
0;
0/
#1155
1/
1"
01
0O
1;
0R
0N
#1156
x8
bx 2
03
bx =
bx 4
bx :
x7
b10 %
bx 6
#1160
0"
0/
0;
#1165
1;
1"
1/
#1166
b1111 6
b10 :
b10000000100000001 4
b10000000100000001 =
18
13
b110000000000000000001000001000 2
17
#1170
0/
0;
0"
#1175
1"
1/
11
1N
1;
1O
1R
#1180
0"
0/
0;
#1185
1;
1"
01
0R
1/
0O
0N
#1186
x7
03
x8
bx =
bx 6
bx 4
bx :
b11 %
bx 2
#1190
0;
0"
0/
#1195
1/
1;
1"
#1196
b10000000100000001 4
b110000000000000000001000001100 2
b1111 6
b10000000100000001 =
17
18
13
b11 :
#1200
0/
0"
0;
#1205
1;
1/
1N
11
1"
1R
1O
#1210
0/
0;
0"
#1215
1"
1/
0O
0N
1;
0R
01
#1216
x8
bx :
x7
bx =
bx 4
bx 6
bx 2
b100 %
03
#1220
0/
0"
0;
#1225
1;
1/
1"
#1226
13
b1111 6
b100000001000000010 4
b100000001000000010 =
18
17
b0 :
b110000000000000000001000010000 2
#1230
0"
0;
0/
#1235
1/
1"
1O
11
1;
1N
1R
#1240
0/
0"
0;
#1245
1;
1/
0O
0R
1"
0N
01
#1246
bx 2
x7
x8
bx =
03
bx 4
bx 6
b101 %
bx :
#1250
0;
0/
0"
#1255
1"
1;
1/
#1256
b100000001000000010 4
b1 :
13
b100000001000000010 =
b110000000000000000001000010100 2
18
17
b1111 6
#1260
0"
0/
0;
#1265
1;
1"
11
1O
1/
1R
1N
#1270
0"
0;
0/
#1275
1/
1"
0N
01
1;
0R
0O
#1276
x8
bx 6
bx 2
bx =
bx 4
03
bx :
b110 %
x7
#1280
0"
0/
0;
#1285
1;
1"
1/
#1286
17
13
b100000001000000010 4
b100000001000000010 =
18
b110000000000000000001000011000 2
b1111 6
b10 :
#1290
0/
0;
0"
#1295
1"
1/
1N
1O
1;
11
1R
#1300
0"
0/
0;
#1305
1;
1"
0N
0R
1/
01
0O
#1306
bx :
bx 2
x8
bx =
x7
bx 4
03
b111 %
bx 6
#1310
0;
0"
0/
#1315
1/
1;
1"
#1316
b100000001000000010 4
b1111 6
17
b100000001000000010 =
b11 :
18
b110000000000000000001000011100 2
13
#1320
0/
0"
0;
#1325
1;
1/
1O
1N
1"
1R
11
#1330
0/
0;
0"
#1335
1"
1/
01
0O
1;
0R
0N
#1336
x8
03
bx :
bx =
bx 4
x7
bx 6
b1000 %
bx 2
#1340
0/
0"
0;
#1345
1;
1/
1"
#1346
b110000000000000000001000100000 2
17
b110000001100000011 4
b110000001100000011 =
18
b0 :
13
b1111 6
#1350
0"
0;
0/
#1355
1/
1"
11
1N
1;
1O
1R
#1360
0/
0"
0;
#1365
1;
1/
01
0R
1"
0O
0N
#1366
bx 6
bx :
x8
bx =
bx 2
bx 4
x7
b1001 %
03
#1370
0;
0/
0"
#1375
1"
1;
1/
#1376
b110000001100000011 4
13
b110000000000000000001000100100 2
b110000001100000011 =
b1111 6
18
b1 :
17
#1380
0"
0/
0;
#1385
1;
1"
1N
11
1/
1R
1O
#1390
0"
0;
0/
#1395
1/
1"
0O
0N
1;
0R
01
#1396
x8
x7
bx 6
bx =
bx 4
bx 2
03
b1010 %
bx :
#1400
0"
0/
0;
#1405
1;
1"
1/
#1406
b10 :
b110000000000000000001000101000 2
b110000001100000011 4
b110000001100000011 =
18
b1111 6
17
13
#1410
0/
0;
0"
#1415
1"
1/
1O
11
1;
1N
1R
#1420
0"
0/
0;
#1425
1;
1"
0O
0R
1/
0N
01
#1426
03
bx 6
x8
bx =
bx :
bx 4
bx 2
b1011 %
x7
#1430
0;
0"
0/
#1435
1/
1;
1"
#1436
b110000001100000011 4
17
b11 :
b110000001100000011 =
13
18
b1111 6
b110000000000000000001000101100 2
#1440
0/
0"
0;
#1445
1;
1/
11
1O
1"
1R
1N
#1450
0/
0;
0"
#1455
1"
1/
0N
01
1;
0R
0O
#1456
x8
bx 2
03
bx =
bx 4
bx :
x7
b1100 %
bx 6
#1460
0/
0"
0;
#1465
1;
1/
1"
#1466
b1111 6
b0 :
b1000000010000000100 4
b1000000010000000100 =
18
13
b110000000000000000001000110000 2
17
#1470
0"
0;
0/
#1475
1/
1"
1N
1O
1;
11
1R
#1480
0/
0"
0;
#1485
1;
1/
0N
0R
1"
01
0O
#1486
x7
03
x8
bx =
bx 6
bx 4
bx :
b1101 %
bx 2
#1490
0;
0/
0"
#1495
1"
1;
1/
#1496
b1000000010000000100 4
b110000000000000000001000110100 2
b1111 6
b1000000010000000100 =
17
18
13
b1 :
#1500
0"
0/
0;
#1505
1;
1"
1O
1N
1/
1R
11
#1510
0"
0;
0/
#1515
1/
1"
01
0O
1;
0R
0N
#1516
x8
bx :
x7
bx =
bx 4
bx 6
bx 2
b1110 %
03
#1520
0"
0/
0;
#1525
1;
1"
1/
#1526
13
b1111 6
b1000000010000000100 4
b1000000010000000100 =
18
17
b10 :
b110000000000000000001000111000 2
#1530
0/
0;
0"
#1535
1"
1/
11
1N
1;
1O
1R
#1540
0"
0/
0;
#1545
1;
1"
01
0R
1/
0O
0N
#1546
bx 2
x7
x8
bx =
03
bx 4
bx 6
b1111 %
bx :
#1550
0;
0"
0/
#1555
1/
1;
1"
#1556
b1000000010000000100 4
b11 :
13
b1000000010000000100 =
b110000000000000000001000111100 2
18
17
b1111 6
#1560
0/
0"
0;
#1565
1;
1/
1N
11
1"
1R
1O
#1570
0/
0;
0"
#1575
1"
1/
0O
0N
1;
0R
01
#1576
x8
bx 6
bx 2
bx =
bx 4
03
bx :
b10000 %
x7
#1580
0/
0"
0;
#1585
1;
1/
1"
#1586
17
13
b1010000010100000101 4
b1010000010100000101 =
18
b110000000000000000001001000000 2
b1111 6
b0 :
#1590
0"
0;
0/
#1595
1/
1"
1O
11
1;
1N
1R
#1600
0/
0"
0;
#1605
1;
1/
0O
0R
1"
0N
01
#1606
bx :
bx 2
x8
bx =
x7
bx 4
03
b10001 %
bx 6
#1610
0;
0/
0"
#1615
1"
1;
1/
#1616
b1010000010100000101 4
b1111 6
17
b1010000010100000101 =
b1 :
18
b110000000000000000001001000100 2
13
#1620
0"
0/
0;
#1625
1;
1"
11
1O
1/
1R
1N
#1630
0"
0;
0/
#1635
1/
1"
0N
01
1;
0R
0O
#1636
x8
03
bx :
bx =
bx 4
x7
bx 6
b10010 %
bx 2
#1640
0"
0/
0;
#1645
1;
1"
1/
#1646
b110000000000000000001001001000 2
17
b1010000010100000101 4
b1010000010100000101 =
18
b10 :
13
b1111 6
#1650
0/
0;
0"
#1655
1"
1/
1N
1O
1;
11
1R
#1660
0"
0/
0;
#1665
1;
1"
0N
0R
1/
01
0O
#1666
bx 6
bx :
x8
bx =
bx 2
bx 4
x7
b10011 %
03
#1670
0;
0"
0/
#1675
1/
1;
1"
#1676
b1010000010100000101 4
13
b110000000000000000001001001100 2
b1010000010100000101 =
b1111 6
18
b11 :
17
#1680
0/
0"
0;
#1685
1;
1/
1O
1N
1"
1R
11
#1690
0/
0;
0"
#1695
1"
1/
01
0O
1;
0R
0N
#1696
x8
x7
bx 6
bx =
bx 4
bx 2
03
b10100 %
bx :
#1700
0/
0"
0;
#1705
1;
1/
1"
#1706
b0 :
b110000000000000000001001010000 2
b1100000011000000110 4
b1100000011000000110 =
18
b1111 6
17
13
#1710
0"
0;
0/
#1715
1/
1"
11
1N
1;
1O
1R
#1720
0/
0"
0;
#1725
1;
1/
01
0R
1"
0O
0N
#1726
03
bx 6
x8
bx =
bx :
bx 4
bx 2
b10101 %
x7
#1730
0;
0/
0"
#1735
1"
1;
1/
#1736
b1100000011000000110 4
17
b1 :
b1100000011000000110 =
13
18
b1111 6
b110000000000000000001001010100 2
#1740
0"
0/
0;
#1745
1;
1"
1N
11
1/
1R
1O
#1750
0"
0;
0/
#1755
1/
1"
0O
0N
1;
0R
01
#1756
x8
bx 2
03
bx =
bx 4
bx :
x7
b10110 %
bx 6
#1760
0"
0/
0;
#1765
1;
1"
1/
#1766
b1111 6
b10 :
b1100000011000000110 4
b1100000011000000110 =
18
13
b110000000000000000001001011000 2
17
#1770
0/
0;
0"
#1775
1"
1/
1O
11
1;
1N
1R
#1780
0"
0/
0;
#1785
1;
1"
0O
0R
1/
0N
01
#1786
x7
03
x8
bx =
bx 6
bx 4
bx :
b10111 %
bx 2
#1790
0;
0"
0/
#1795
1/
1;
1"
#1796
b1100000011000000110 4
b110000000000000000001001011100 2
b1111 6
b1100000011000000110 =
17
18
13
b11 :
#1800
0/
0"
0;
#1805
1;
1/
11
1O
1"
1R
1N
#1810
0/
0;
0"
#1815
1"
1/
0N
01
1;
0R
0O
#1816
x8
bx :
x7
bx =
bx 4
bx 6
bx 2
b11000 %
03
#1820
0/
0"
0;
#1825
1;
1/
1"
#1826
13
b1111 6
b1110000011100000111 4
b1110000011100000111 =
18
17
b0 :
b110000000000000000001001100000 2
#1830
0"
0;
0/
#1835
1/
1"
1N
1O
1;
11
1R
#1840
0/
0"
0;
#1845
1;
1/
0N
0R
1"
01
0O
#1846
bx 2
x7
x8
bx =
03
bx 4
bx 6
b11001 %
bx :
#1850
0;
0/
0"
#1855
1"
1;
1/
#1856
b1110000011100000111 4
b1 :
13
b1110000011100000111 =
b110000000000000000001001100100 2
18
17
b1111 6
#1860
0"
0/
0;
#1865
1;
1"
1O
1N
1/
1R
11
#1870
0"
0;
0/
#1875
1/
1"
01
0O
1;
0R
0N
#1876
x8
bx 6
bx 2
bx =
bx 4
03
bx :
b11010 %
x7
#1880
0"
0/
0;
#1885
1;
1"
1/
#1886
17
13
b1110000011100000111 4
b1110000011100000111 =
18
b110000000000000000001001101000 2
b1111 6
b10 :
#1890
0/
0;
0"
#1895
1"
1/
11
1N
1;
1O
1R
#1900
0"
0/
0;
#1905
1;
1"
01
0R
1/
0O
0N
#1906
bx :
bx 2
x8
bx =
x7
bx 4
03
b11011 %
bx 6
#1910
0;
0"
0/
#1915
1/
1;
1"
#1916
b1110000011100000111 4
b1111 6
17
b1110000011100000111 =
b11 :
18
b110000000000000000001001101100 2
13
#1920
0/
0"
0;
#1925
1;
1/
1N
11
1"
1R
1O
#1930
0/
0;
0"
#1935
1"
1/
0O
0N
1;
0R
01
#1936
x8
03
bx :
bx =
bx 4
x7
bx 6
b11100 %
bx 2
#1940
0/
0"
0;
#1945
1;
1/
1"
#1946
b110000000000000000001001110000 2
17
b10000000100000001000 4
b10000000100000001000 =
18
b0 :
13
b1111 6
#1950
0"
0;
0/
#1955
1/
1"
1O
11
1;
1N
1R
#1960
0/
0"
0;
#1965
1;
1/
0O
0R
1"
0N
01
#1966
bx 6
bx :
x8
bx =
bx 2
bx 4
x7
b11101 %
03
#1970
0;
0/
0"
#1975
1"
1;
1/
#1976
b10000000100000001000 4
13
b110000000000000000001001110100 2
b10000000100000001000 =
b1111 6
18
b1 :
17
#1980
0"
0/
0;
#1985
1;
1"
11
1O
1/
1R
1N
#1990
0"
0;
0/
#1995
1/
1"
0N
01
1;
0R
0O
#1996
x8
x7
bx 6
bx =
bx 4
bx 2
03
b11110 %
bx :
#2000
0"
0/
0;
#2005
1;
1"
1/
#2006
b10 :
b110000000000000000001001111000 2
b10000000100000001000 4
b10000000100000001000 =
18
b1111 6
17
13
#2010
0/
0;
0"
#2015
1"
1/
1N
1O
1;
11
1R
#2020
0"
0/
0;
#2025
1;
1"
0N
0R
1/
01
0O
#2026
03
bx 6
x8
bx =
bx :
bx 4
bx 2
b11111 %
x7
#2030
0;
0"
0/
#2035
1/
1;
1"
#2036
b10000000100000001000 4
17
b11 :
b10000000100000001000 =
13
18
b1111 6
b110000000000000000001001111100 2
#2040
0/
0"
0;
#2045
1;
1/
1O
1N
1"
1R
11
#2050
0/
0;
0"
#2055
1"
1/
01
0O
1;
0R
0N
#2056
x8
bx 2
03
bx =
bx 4
bx :
x7
b100000 %
bx 6
#2060
0/
0"
0;
#2065
1;
1/
1"
#2066
b1111 6
b1 :
b1000000100000011100000001 4
b1000000100000011100000001 =
18
13
b110000000000000000000000000100 2
17
1J
#2070
0"
0;
0/
#2075
1/
1"
11
b1 A
b1000000100000011100000001 L
b10 B
1N
1;
1O
1R
b1 I
b1000000100000011100000001 K
b111 <
#2080
0"
0/
0;
#2085
1;
1"
01
b1000000100000011100000001 Q
b1000000100000011100000001 M
1/
0N
0O
b1000000100000011100000001 5
b1000000100000011100000001 P
0R
#2086
0J
03
x8
bx =
bx 6
bx 4
bx :
x7
bx 2
#2090
0"
0;
0/
#2095
1/
1"
1;
#2096
b110000000000000000000000001000 2
b111000000000000010111 4
b1111 6
b0 L
b111000000000000010111 =
1J
18
13
17
b10 :
b0 K
#2100
0;
0/
0"
#2105
1"
1;
b111000000000000010111 K
1R
b0 Q
11
b10111 E
b111 C
b111000000000000010111 L
1/
b0 P
b0 M
b0 5
1N
1O
#2110
0"
0;
0/
#2115
1/
1"
0O
0R
01
b111000000000000010111 Q
1;
0N
b111000000000000010111 5
b111000000000000010111 P
b111000000000000010111 M
#2116
x8
bx 2
0J
bx =
bx 4
bx 6
x7
03
bx :
#2120
0/
0"
0;
#2125
1;
1/
1"
#2126
b100 4
b0 K
b0 :
b100 =
18
1J
b110000000000000000000000000000 2
17
b1111 6
b0 L
13
#2130
0"
0;
0/
#2135
1/
1"
b1 S
11
b0 M
1R
1O
b100 K
1;
b100 L
b0 P
b0 Q
b0 5
1N
1H
#2140
0"
0/
0;
#2145
1;
1"
0O
0R
b100 M
01
1/
0N
b100 5
b100 Q
b100 P
